<svg xmlns="http://www.w3.org/2000/svg" version="1.1" xmlns:xlink="http://www.w3.org/1999/xlink" viewBox="0 0 1000 1000">
	<defs>
		<linearGradient id="svg-01" gradientUnits="userSpaceOnUse" x1="60" y1="320" x2="710" y2="480">
			<stop offset="0" stop-color="#A07759"></stop>
			<stop offset="1" stop-color="#285A71"></stop>
		</linearGradient>
	</defs>
	<g class="svg-01">
		<path fill="url(#svg-01)" fill-opacity="0.2" d="M15.3761 450.189C-33.1239 579.989 37.9761 735.989 160.376 773.589C234.276 800.289 290.276 864.489 368.376 880.889C428.376 895.089 489.176 866.389 540.676 832.489C582.576 804.389 626.276 778.089 672.876 760.589C744.676 731.189 820.476 702.589 876.476 642.589C972.876 546.689 1003.98 380.689 936.476 265.589C896.276 194.289 822.876 153.289 748.376 132.189C670.276 105.189 593.476 73.9889 520.476 35.5889C449.776 3.98904 367.176 -15.411 290.376 15.889C215.376 47.489 164.076 121.089 129.776 195.589C89.1761 279.389 52.9761 365.089 15.3761 450.189L15.3761 450.189Z"></path>
		<path fill="url(#svg-01)" fill-opacity="0.4" d="M114.3 124.498C98 172.098 84.2 220.998 68 268.798C39.5 358.098 10.7 448.698 0 542.798C7.2 637.998 76.2 721.198 160.9 743.598C214.7 775.498 269.2 818.798 333.8 815.298C434.8 799.898 510.8 711.998 610.8 692.998C688.6 671.498 771.6 641.198 823.6 570.698C905.5 476.898 902 309.598 810.4 226.098C747.2 170.698 661.2 169.798 588.5 136.998C488.5 95.5982 402 17.0982 293.3 0.998215C216.9 -8.40179 143.1 49.7982 114.3 124.498L114.3 124.498Z"></path>
		<path fill="url(#svg-01)" fill-opacity="0.5" d="M75.3025 113.128C31.5025 233.228 -9.39751 360.528 1.9025 492.628C7.2025 576.728 60.6025 647.528 122.202 693.628C160.602 726.128 206.502 761.028 257.202 752.528C347.302 724.428 418.102 645.328 513.302 633.228C589.902 620.128 669.802 597.928 727.502 538.228C774.002 491.728 803.902 420.328 790.002 350.428C777.902 276.028 725.402 209.028 657.002 191.328C554.402 151.428 447.002 119.328 355.602 51.7284C298.502 17.8284 232.502 -11.9716 167.002 4.82838C122.802 22.5284 92.4025 66.8284 75.3025 113.128L75.3025 113.128Z"></path>
		<path fill="url(#svg-01)" fill-opacity="0.7" d="M32.2625 175.878C-12.7375 290.778 -13.9375 434.678 49.5625 547.478C83.2626 604.278 141.963 652.278 204.663 644.478C287.663 627.778 353.863 556.178 441.063 555.878C521.563 544.878 608.363 537.778 674.363 482.878C728.162 445.978 747.162 365.678 728.662 298.078C717.463 252.778 686.663 214.978 648.963 194.478C540.963 126.678 416.462 105.878 309.563 35.1782C259.663 8.3782 199.563 -14.1218 147.063 10.7782C87.7626 42.3782 58.1626 112.478 32.2625 175.878L32.2625 175.878Z"></path>	
	</g>
</svg>